{
    "results": [
        {
            "vote_count": 820,
            "id": 429617,
            "video": false,
            "vote_average": 7.8,
            "title": "Spider-Man:",
            "popularity": 615.274,
            "poster_path": "/rjbNpRMoVvqHmhmksbokcyCr7wn.jpg",
            "original_language": "en",
            "original_title": "Spider-Man: Far from Home",
            "genre_ids": [
                28,
                12,
                878
            ],
            "backdrop_path": "/dihW2yTsvQlust7mSuAqJDtqW7k.jpg",
            "adult": false,
            "overview": "Peter Parker and his friends go on a summer trip to Europe. However, they will hardly be able to rest - Peter will have to agree to help Nick Fury uncover the mystery of creatures that cause natural disasters and destruction throughout the continent.",
            "release_date": "2019-06-28"
        },
        {
            "vote_count": 1066,
            "id": 301528,
            "video": false,
            "vote_average": 7.8,
            "title": "Toy Story 2",
            "popularity": 278.385,
            "poster_path": "/w9kR8qbmQ01HwnvK4alvnQ2ca0L.jpg",
            "original_language": "en",
            "original_title": "Toy Story 4",
            "genre_ids": [
                12,
                16,
                35,
                10751
            ],
            "backdrop_path": "/m67smI1IIMmYzCl9axvKNULVKLr.jpg",
            "adult": false,
            "overview": "Woody has always been confident about his place in the world and that his priority is taking care of his kid, whether that's Andy or Bonnie. But when Bonnie adds a reluctant new toy called \"Forky\" to her room, a road trip adventure alongside old and new friends will show Woody how big the world can be for a toy.",
            "release_date": "2019-06-19"
        }
    ],
    "page": 1,
    "total_results": 947,
    "dates": {
        "maximum": "2019-07-06",
        "minimum": "2019-05-19"
    },
    "total_pages": 48
}
